[
 {
  "docstatus": 0, 
  "doctype": "Workflow Action", 
  "modified": "2017-01-12 20:57:38.865407", 
  "name": "Close Call", 
  "workflow_action_name": "Close Call"
 }, 
 {
  "docstatus": 0, 
  "doctype": "Workflow Action", 
  "modified": "2017-01-15 17:54:29.042151", 
  "name": "Re-allocate Call", 
  "workflow_action_name": "Re-allocate Call"
 }, 
 {
  "docstatus": 0, 
  "doctype": "Workflow Action", 
  "modified": "2017-01-12 20:57:59.894977", 
  "name": "Break Call", 
  "workflow_action_name": "Break Call"
 }, 
 {
  "docstatus": 0, 
  "doctype": "Workflow Action", 
  "modified": "2017-01-12 21:45:51.885428", 
  "name": "Abandon Call", 
  "workflow_action_name": "Abandon Call"
 }, 
 {
  "docstatus": 0, 
  "doctype": "Workflow Action", 
  "modified": "2017-01-13 16:24:39.284875", 
  "name": "Log Call", 
  "workflow_action_name": "Log Call"
 }
]